{
  "orders": [
    {
      "tjmHt": 1200,
      "nbJours": 10,
      "tva": 20,
      "state": "CANCEL",
      "id": 1,
      "typePresta": "coatching",
      "client": "Modis",
      "comment": "Merci Modis pour les 1.2k jour"
    },
    {
      "tjmHt": 1200,
      "nbJours": 1,
      "tva": 20,
      "state": "CONFIRMED",
      "typePresta": "test",
      "client": "Edugroupe",
      "comment": "merci edugroupe",
      "id": 3
    },
    {
      "tjmHt": 1200,
      "nbJours": 1,
      "tva": 20,
      "state": "OPTION",
      "typePresta": "test",
      "client": "test",
      "comment": "toto",
      "id": 5
    },
    {
      "tjmHt": 1200,
      "nbJours": 1,
      "tva": 20,
      "state": "OPTION",
      "typePresta": "dzad",
      "client": "zadazd",
      "comment": "dzada",
      "id": 7
    },
    {
      "tjmHt": 1200,
      "nbJours": 1,
      "tva": 20,
      "state": "OPTION",
      "typePresta": "azdazfc",
      "client": "dzadza",
      "comment": null,
      "id": 8
    },
    {
      "tjmHt": 1200,
      "nbJours": 1,
      "tva": 20,
      "state": "OPTION",
      "typePresta": "wxcwc",
      "client": "cxwxwcxcw",
      "comment": null,
      "id": 9
    }
  ],
  "clients": [
    {
      "id": 1,
      "name": "Christophe",
      "ca": 1000,
      "state": "ACTIVE"
    },
    {
      "state": "ACTIVE",
      "name": "jeff",
      "ca": 2,
      "id": 2
    },
    {
      "state": "ACTIVE",
      "name": "kolo",
      "ca": 123,
      "id": 3
    }
  ]
}